[
  {
    "Kanji": "会う",
    "Hiragana": "あう",
    "English": "to meet"
  },
  {
    "Kanji": "青",
    "Hiragana": "あお",
    "English": "blue"
  },
  {
    "Kanji": "青い",
    "Hiragana": "あおい",
    "English": "blue"
  },
  {
    "Kanji": "赤",
    "Hiragana": "あか",
    "English": "red"
  },
  {
    "Kanji": "赤い",
    "Hiragana": "あかい",
    "English": "red"
  },
  {
    "Kanji": "明い",
    "Hiragana": "あかるい",
    "English": "bright"
  },
  {
    "Kanji": "秋",
    "Hiragana": "あき",
    "English": "autumn"
  },
  {
    "Kanji": "開く",
    "Hiragana": "あく",
    "English": "to open, to become open"
  },
  {
    "Kanji": "開ける",
    "Hiragana": "あける",
    "English": "to open"
  },
  {
    "Kanji": "上げる",
    "Hiragana": "あげる",
    "English": "to give"
  },
  {
    "Kanji": "朝",
    "Hiragana": "あさ",
    "English": "morning"
  },
  {
    "Kanji": "朝御飯",
    "Hiragana": "あさごはん",
    "English": "breakfast"
  },
  {
    "Kanji": "",
    "Hiragana": "あさって",
    "English": "day after tomorrow"
  },
  {
    "Kanji": "足",
    "Hiragana": "あし",
    "English": "foot, leg"
  },
  {
    "Kanji": "明日",
    "Hiragana": "あした",
    "English": "tomorrow"
  },
  {
    "Kanji": "",
    "Hiragana": "あそこ",
    "English": "over there"
  },
  {
    "Kanji": "遊ぶ",
    "Hiragana": "あそぶ",
    "English": "to play, to make a visit"
  },
  {
    "Kanji": "暖かい",
    "Hiragana": "あたたかい",
    "English": "warm"
  },
  {
    "Kanji": "頭",
    "Hiragana": "あたま",
    "English": "head"
  },
  {
    "Kanji": "新しい",
    "Hiragana": "あたらしい",
    "English": "new"
  },
  {
    "Kanji": "",
    "Hiragana": "あちら",
    "English": "there"
  },
  {
    "Kanji": "暑い",
    "Hiragana": "あつい",
    "English": "hot"
  },
  {
    "Kanji": "熱い",
    "Hiragana": "あつい",
    "English": "hot to the touch"
  },
  {
    "Kanji": "厚い",
    "Hiragana": "あつい",
    "English": "kind, deep, thick"
  },
  {
    "Kanji": "",
    "Hiragana": "あっち",
    "English": "over there"
  },
  {
    "Kanji": "後",
    "Hiragana": "あと",
    "English": "afterwards"
  },
  {
    "Kanji": "",
    "Hiragana": "あなた",
    "English": "you"
  },
  {
    "Kanji": "兄",
    "Hiragana": "あに",
    "English": "(humble) older brother"
  },
  {
    "Kanji": "姉",
    "Hiragana": "あね",
    "English": "(humble) older sister"
  },
  {
    "Kanji": "",
    "Hiragana": "あの",
    "English": "that over there"
  },
  {
    "Kanji": "",
    "Hiragana": "あの",
    "English": "um..."
  },
  {
    "Kanji": "",
    "Hiragana": "アパート",
    "English": "apartment"
  },
  {
    "Kanji": "",
    "Hiragana": "あびる",
    "English": "to bathe, to shower"
  },
  {
    "Kanji": "危ない",
    "Hiragana": "あぶない",
    "English": "dangerous"
  },
  {
    "Kanji": "甘い",
    "Hiragana": "あまい",
    "English": "sweet"
  },
  {
    "Kanji": "",
    "Hiragana": "あまり",
    "English": "not very"
  },
  {
    "Kanji": "雨",
    "Hiragana": "あめ",
    "English": "rain"
  },
  {
    "Kanji": "飴",
    "Hiragana": "あめ",
    "English": "candy"
  },
  {
    "Kanji": "洗う",
    "Hiragana": "あらう",
    "English": "to wash"
  },
  {
    "Kanji": "",
    "Hiragana": "ある",
    "English": "to be,to have (used for inanimate objects)"
  },
  {
    "Kanji": "歩く",
    "Hiragana": "あるく",
    "English": "to walk"
  },
  {
    "Kanji": "",
    "Hiragana": "あれ",
    "English": "that"
  },
  {
    "Kanji": "",
    "Hiragana": "いい/よい",
    "English": "good"
  },
  {
    "Kanji": "",
    "Hiragana": "いいえ",
    "English": "no"
  },
  {
    "Kanji": "言う",
    "Hiragana": "いう",
    "English": "to say"
  },
  {
    "Kanji": "家",
    "Hiragana": "いえ",
    "English": "house"
  },
  {
    "Kanji": "",
    "Hiragana": "いかが",
    "English": "how"
  },
  {
    "Kanji": "行く",
    "Hiragana": "いく",
    "English": "to go"
  },
  {
    "Kanji": "",
    "Hiragana": "いくつ",
    "English": "how many?,how old?"
  },
  {
    "Kanji": "",
    "Hiragana": "いくら",
    "English": "how much?"
  },
  {
    "Kanji": "池",
    "Hiragana": "いけ",
    "English": "pond"
  },
  {
    "Kanji": "医者",
    "Hiragana": "いしゃ",
    "English": "medical doctor"
  },
  {
    "Kanji": "",
    "Hiragana": "いす",
    "English": "chair"
  },
  {
    "Kanji": "忙しい",
    "Hiragana": "いそがしい",
    "English": "busy, irritated"
  },
  {
    "Kanji": "痛い",
    "Hiragana": "いたい",
    "English": "painful"
  },
  {
    "Kanji": "一",
    "Hiragana": "いち",
    "English": "one"
  },
  {
    "Kanji": "一日",
    "Hiragana": "いちにち",
    "English": "first of the month"
  },
  {
    "Kanji": "",
    "Hiragana": "いちばん",
    "English": "best, first"
  },
  {
    "Kanji": "",
    "Hiragana": "いつ",
    "English": "when"
  },
  {
    "Kanji": "五日",
    "Hiragana": "いつか",
    "English": "five days, fifth day"
  },
  {
    "Kanji": "一緒",
    "Hiragana": "いっしょ",
    "English": "together"
  },
  {
    "Kanji": "五つ",
    "Hiragana": "いつつ",
    "English": "five"
  },
  {
    "Kanji": "",
    "Hiragana": "いつも",
    "English": "always"
  },
  {
    "Kanji": "犬",
    "Hiragana": "いぬ",
    "English": "dog"
  },
  {
    "Kanji": "今",
    "Hiragana": "いま",
    "English": "now"
  },
  {
    "Kanji": "意味",
    "Hiragana": "いみ",
    "English": "meaning"
  },
  {
    "Kanji": "妹",
    "Hiragana": "いもうと",
    "English": "(humble) younger sister"
  },
  {
    "Kanji": "嫌",
    "Hiragana": "いや",
    "English": "unpleasant"
  },
  {
    "Kanji": "入口",
    "Hiragana": "いりぐち",
    "English": "entrance"
  },
  {
    "Kanji": "居る",
    "Hiragana": "いる",
    "English": "to be, to have (used for people and animals)"
  },
  {
    "Kanji": "要る",
    "Hiragana": "いる",
    "English": "to need"
  },
  {
    "Kanji": "入れる",
    "Hiragana": "いれる",
    "English": "to put in"
  },
  {
    "Kanji": "色",
    "Hiragana": "いろ",
    "English": "colour"
  },
  {
    "Kanji": "",
    "Hiragana": "いろいろ",
    "English": "various"
  },
  {
    "Kanji": "上",
    "Hiragana": "うえ",
    "English": "on top of"
  },
  {
    "Kanji": "後ろ",
    "Hiragana": "うしろ",
    "English": "behind"
  },
  {
    "Kanji": "薄い",
    "Hiragana": "うすい",
    "English": "thin,weak"
  },
  {
    "Kanji": "歌",
    "Hiragana": "うた",
    "English": "song"
  },
  {
    "Kanji": "歌う",
    "Hiragana": "うたう",
    "English": "to sing"
  },
  {
    "Kanji": "生まれる",
    "Hiragana": "うまれる",
    "English": "to be born"
  },
  {
    "Kanji": "海",
    "Hiragana": "うみ",
    "English": "sea"
  },
  {
    "Kanji": "売る",
    "Hiragana": "うる",
    "English": "to sell"
  },
  {
    "Kanji": "煩い",
    "Hiragana": "うるさい",
    "English": "noisy, annoying"
  },
  {
    "Kanji": "上着",
    "Hiragana": "うわぎ",
    "English": "jacket"
  },
  {
    "Kanji": "絵",
    "Hiragana": "え",
    "English": "picture"
  },
  {
    "Kanji": "映画",
    "Hiragana": "えいが",
    "English": "movie"
  },
  {
    "Kanji": "映画館",
    "Hiragana": "えいがかん",
    "English": "cinema"
  },
  {
    "Kanji": "英語",
    "Hiragana": "えいご",
    "English": "English language"
  },
  {
    "Kanji": "",
    "Hiragana": "ええ",
    "English": "yes"
  },
  {
    "Kanji": "駅",
    "Hiragana": "えき",
    "English": "station"
  },
  {
    "Kanji": "",
    "Hiragana": "エレベーター",
    "English": "elevator"
  },
  {
    "Kanji": "鉛筆",
    "Hiragana": "えんぴつ",
    "English": "pencil"
  },
  {
    "Kanji": "",
    "Hiragana": "おいしい",
    "English": "delicious"
  },
  {
    "Kanji": "多い",
    "Hiragana": "おおい",
    "English": "many"
  },
  {
    "Kanji": "大きい",
    "Hiragana": "おおきい",
    "English": "big"
  },
  {
    "Kanji": "大きな",
    "Hiragana": "おおきな",
    "English": "big"
  },
  {
    "Kanji": "大勢",
    "Hiragana": "おおぜい",
    "English": "great number of people"
  },
  {
    "Kanji": "お母さん",
    "Hiragana": "おかあさん",
    "English": "(honorable) mother"
  },
  {
    "Kanji": "お菓子",
    "Hiragana": "おかし",
    "English": "sweets, candy"
  },
  {
    "Kanji": "お金",
    "Hiragana": "おかね",
    "English": "money"
  },
  {
    "Kanji": "起きる",
    "Hiragana": "おきる",
    "English": "to get up"
  },
  {
    "Kanji": "置く",
    "Hiragana": "おく",
    "English": "to put"
  },
  {
    "Kanji": "奥さん",
    "Hiragana": "おくさん",
    "English": "(honorable) wife"
  },
  {
    "Kanji": "お酒",
    "Hiragana": "おさけ",
    "English": "alcohol, rice wine"
  },
  {
    "Kanji": "お皿",
    "Hiragana": "おさら",
    "English": "plate, dish"
  },
  {
    "Kanji": "伯父/叔父",
    "Hiragana": "おじいさん",
    "English": "grandfather, male senior citizen"
  },
  {
    "Kanji": "教える",
    "Hiragana": "おしえる",
    "English": "to teach, to tell"
  },
  {
    "Kanji": "伯父/叔父",
    "Hiragana": "おじさん",
    "English": "uncle, middle aged gentleman"
  },
  {
    "Kanji": "押す",
    "Hiragana": "おす",
    "English": "to push, to stamp something"
  },
  {
    "Kanji": "遅い",
    "Hiragana": "おそい",
    "English": "late, slow"
  },
  {
    "Kanji": "お茶",
    "Hiragana": "おちゃ",
    "English": "green tea"
  },
  {
    "Kanji": "お手洗い",
    "Hiragana": "おてあらい",
    "English": "bathroom"
  },
  {
    "Kanji": "お父さん",
    "Hiragana": "おとうさん",
    "English": "(honorable) father"
  },
  {
    "Kanji": "弟",
    "Hiragana": "おとうと",
    "English": "younger brother"
  },
  {
    "Kanji": "男",
    "Hiragana": "おとこ",
    "English": "Man"
  },
  {
    "Kanji": "男の子",
    "Hiragana": "おとこのこ",
    "English": "Boy"
  },
  {
    "Kanji": "一昨日",
    "Hiragana": "おととい",
    "English": "day before yesterday"
  },
  {
    "Kanji": "一昨年",
    "Hiragana": "おととし",
    "English": "year before last"
  },
  {
    "Kanji": "大人",
    "Hiragana": "おとな",
    "English": "Adult"
  },
  {
    "Kanji": "",
    "Hiragana": "おなか",
    "English": "stomach"
  },
  {
    "Kanji": "同じ",
    "Hiragana": "おなじ",
    "English": "same"
  },
  {
    "Kanji": "お兄さん",
    "Hiragana": "おにいさん",
    "English": "(honorable) older brother"
  },
  {
    "Kanji": "お姉さん",
    "Hiragana": "おねえさん",
    "English": "(honorable) older sister"
  },
  {
    "Kanji": "",
    "Hiragana": "おばあさん",
    "English": "grandmother, female senior-citizen"
  },
  {
    "Kanji": "伯母さん/叔母さん",
    "Hiragana": "おばさん",
    "English": "Aunt"
  },
  {
    "Kanji": "お風呂",
    "Hiragana": "おふろ",
    "English": "Bath"
  },
  {
    "Kanji": "お弁当",
    "Hiragana": "おべんとう",
    "English": "boxed lunch"
  },
  {
    "Kanji": "覚える",
    "Hiragana": "おぼえる",
    "English": "to remember"
  },
  {
    "Kanji": "",
    "Hiragana": "おまわりさん",
    "English": "friendly term for policeman"
  },
  {
    "Kanji": "重い",
    "Hiragana": "おもい",
    "English": "Heavy"
  },
  {
    "Kanji": "",
    "Hiragana": "おもしろい",
    "English": "Interesting"
  },
  {
    "Kanji": "泳ぐ",
    "Hiragana": "およぐ",
    "English": "to swim"
  },
  {
    "Kanji": "降りる",
    "Hiragana": "おりる",
    "English": "to get off, to descend"
  },
  {
    "Kanji": "終る",
    "Hiragana": "おわる",
    "English": "to finish"
  },
  {
    "Kanji": "音楽",
    "Hiragana": "おんがく",
    "English": "Music"
  },
  {
    "Kanji": "女",
    "Hiragana": "おんな",
    "English": "Woman"
  },
  {
    "Kanji": "女の子",
    "Hiragana": "おんなのこ",
    "English": "Girl"
  },
  {
    "Kanji": "外国",
    "Hiragana": "がいこく",
    "English": "foreign country"
  },
  {
    "Kanji": "外国人",
    "Hiragana": "がいこくじん",
    "English": "Foreigner"
  },
  {
    "Kanji": "会社",
    "Hiragana": "かいしゃ",
    "English": "Company"
  },
  {
    "Kanji": "階段",
    "Hiragana": "かいだん",
    "English": "Stairs"
  },
  {
    "Kanji": "買い物",
    "Hiragana": "かいもの",
    "English": "Shopping"
  },
  {
    "Kanji": "買う",
    "Hiragana": "かう",
    "English": "to buy"
  },
  {
    "Kanji": "返す",
    "Hiragana": "かえす",
    "English": "to return something"
  },
  {
    "Kanji": "帰る",
    "Hiragana": "かえる",
    "English": "to go back"
  },
  {
    "Kanji": "",
    "Hiragana": "かかる",
    "English": "to take time or money"
  },
  {
    "Kanji": "",
    "Hiragana": "かぎ",
    "English": "Key"
  },
  {
    "Kanji": "書く",
    "Hiragana": "かく",
    "English": "to write"
  },
  {
    "Kanji": "学生",
    "Hiragana": "がくせい",
    "English": "Student"
  },
  {
    "Kanji": "",
    "Hiragana": "かける",
    "English": "to call by phone"
  },
  {
    "Kanji": "傘",
    "Hiragana": "かさ",
    "English": "Umbrella"
  },
  {
    "Kanji": "貸す",
    "Hiragana": "かす",
    "English": "to lend"
  },
  {
    "Kanji": "風",
    "Hiragana": "かぜ",
    "English": "Wind"
  },
  {
    "Kanji": "風邪",
    "Hiragana": "かぜ",
    "English": "a cold"
  },
  {
    "Kanji": "家族",
    "Hiragana": "かぞく",
    "English": "Family"
  },
  {
    "Kanji": "方",
    "Hiragana": "かた",
    "English": "person, way of doing"
  },
  {
    "Kanji": "学校",
    "Hiragana": "がっこう",
    "English": "School"
  },
  {
    "Kanji": "",
    "Hiragana": "カップ",
    "English": "Cup"
  },
  {
    "Kanji": "家庭",
    "Hiragana": "かてい",
    "English": "Household"
  },
  {
    "Kanji": "角",
    "Hiragana": "かど",
    "English": "a corner"
  },
  {
    "Kanji": "",
    "Hiragana": "かばん",
    "English": "bag, basket"
  },
  {
    "Kanji": "花瓶",
    "Hiragana": "かびん",
    "English": "a vase"
  },
  {
    "Kanji": "紙",
    "Hiragana": "かみ",
    "English": "paper"
  },
  {
    "Kanji": "",
    "Hiragana": "カメラ",
    "English": "camera"
  },
  {
    "Kanji": "火曜日",
    "Hiragana": "かようび",
    "English": "Tuesday"
  },
  {
    "Kanji": "辛い",
    "Hiragana": "からい",
    "English": "Spicy"
  },
  {
    "Kanji": "体",
    "Hiragana": "からだ",
    "English": "Body"
  },
  {
    "Kanji": "借りる",
    "Hiragana": "かりる",
    "English": "to borrow"
  },
  {
    "Kanji": "軽い",
    "Hiragana": "かるい",
    "English": "Light"
  },
  {
    "Kanji": "",
    "Hiragana": "カレー",
    "English": "Curry"
  },
  {
    "Kanji": "",
    "Hiragana": "カレンダー",
    "English": "calendar"
  },
  {
    "Kanji": "川/河",
    "Hiragana": "かわ",
    "English": "River"
  },
  {
    "Kanji": "",
    "Hiragana": "かわいい",
    "English": "Cute"
  },
  {
    "Kanji": "漢字",
    "Hiragana": "かんじ",
    "English": "Chinese character"
  },
  {
    "Kanji": "木",
    "Hiragana": "き",
    "English": "tree, wood"
  },
  {
    "Kanji": "黄色",
    "Hiragana": "きいろ",
    "English": "yellow"
  },
  {
    "Kanji": "黄色い",
    "Hiragana": "きいろい",
    "English": "yellow"
  },
  {
    "Kanji": "消える",
    "Hiragana": "きえる",
    "English": "to disappear"
  },
  {
    "Kanji": "聞く",
    "Hiragana": "きく",
    "English": "to hear, to listen to, to ask"
  },
  {
    "Kanji": "北",
    "Hiragana": "きた",
    "English": "North"
  },
  {
    "Kanji": "",
    "Hiragana": "ギター",
    "English": "Guitar"
  },
  {
    "Kanji": "汚い",
    "Hiragana": "きたない",
    "English": "Dirty"
  },
  {
    "Kanji": "喫茶店",
    "Hiragana": "きっさてん",
    "English": "coffee lounge"
  },
  {
    "Kanji": "切手",
    "Hiragana": "きって",
    "English": "postage stamp"
  },
  {
    "Kanji": "切符",
    "Hiragana": "きっぷ",
    "English": "Ticket"
  },
  {
    "Kanji": "昨日",
    "Hiragana": "きのう",
    "English": "Yesterday"
  },
  {
    "Kanji": "九",
    "Hiragana": "きゅう / く",
    "English": "Nine"
  },
  {
    "Kanji": "牛肉",
    "Hiragana": "ぎゅうにく",
    "English": "Beef"
  },
  {
    "Kanji": "牛乳",
    "Hiragana": "ぎゅうにゅう",
    "English": "Milk"
  },
  {
    "Kanji": "今日",
    "Hiragana": "きょう",
    "English": "Today"
  },
  {
    "Kanji": "教室",
    "Hiragana": "きょうしつ",
    "English": "Classroom"
  },
  {
    "Kanji": "兄弟",
    "Hiragana": "きょうだい",
    "English": "(humble) siblings"
  },
  {
    "Kanji": "去年",
    "Hiragana": "きょねん",
    "English": "last year"
  },
  {
    "Kanji": "嫌い",
    "Hiragana": "きらい",
    "English": "Hate"
  },
  {
    "Kanji": "切る",
    "Hiragana": "きる",
    "English": "to cut"
  },
  {
    "Kanji": "着る",
    "Hiragana": "きる",
    "English": "to put on from the shoulders down"
  },
  {
    "Kanji": "",
    "Hiragana": "きれい",
    "English": "pretty, clean"
  },
  {
    "Kanji": "",
    "Hiragana": "キロ/キログラム",
    "English": "Kilogram"
  },
  {
    "Kanji": "",
    "Hiragana": "キロ/キロメートル",
    "English": "Kilometer"
  },
  {
    "Kanji": "銀行",
    "Hiragana": "ぎんこう",
    "English": "Bank"
  },
  {
    "Kanji": "金曜日",
    "Hiragana": "きんようび",
    "English": "Friday"
  },
  {
    "Kanji": "薬",
    "Hiragana": "くすり",
    "English": "medicine"
  },
  {
    "Kanji": "",
    "Hiragana": "ください",
    "English": "Please"
  },
  {
    "Kanji": "果物",
    "Hiragana": "くだもの",
    "English": "Fruit"
  },
  {
    "Kanji": "口",
    "Hiragana": "くち",
    "English": "mouth, opening"
  },
  {
    "Kanji": "靴",
    "Hiragana": "くつ",
    "English": "Shoes"
  },
  {
    "Kanji": "靴下",
    "Hiragana": "くつした",
    "English": "Socks"
  },
  {
    "Kanji": "国",
    "Hiragana": "くに",
    "English": "Country"
  },
  {
    "Kanji": "曇り",
    "Hiragana": "くもり",
    "English": "cloudy weather"
  },
  {
    "Kanji": "曇る",
    "Hiragana": "くもる",
    "English": "to become cloudy, to become dim"
  },
  {
    "Kanji": "暗い",
    "Hiragana": "くらい",
    "English": "Gloomy"
  },
  {
    "Kanji": "",
    "Hiragana": "クラス",
    "English": "Class"
  },
  {
    "Kanji": "",
    "Hiragana": "グラム",
    "English": "Gram"
  },
  {
    "Kanji": "来る",
    "Hiragana": "くる",
    "English": "to come"
  },
  {
    "Kanji": "車",
    "Hiragana": "くるま",
    "English": "car, vehicle"
  },
  {
    "Kanji": "黒",
    "Hiragana": "くろ",
    "English": "Black"
  },
  {
    "Kanji": "黒い",
    "Hiragana": "くろい",
    "English": "black"
  },
  {
    "Kanji": "警官",
    "Hiragana": "けいかん",
    "English": "policeman"
  },
  {
    "Kanji": "今朝",
    "Hiragana": "けさ",
    "English": "this morning"
  },
  {
    "Kanji": "消す",
    "Hiragana": "けす",
    "English": "to erase, to turn off power"
  },
  {
    "Kanji": "結構",
    "Hiragana": "けっこう",
    "English": "splendid, enough"
  },
  {
    "Kanji": "結婚",
    "Hiragana": "けっこん",
    "English": "Marriage"
  },
  {
    "Kanji": "月曜日",
    "Hiragana": "げつようび",
    "English": "Monday"
  },
  {
    "Kanji": "玄関",
    "Hiragana": "げんかん",
    "English": "entry hall"
  },
  {
    "Kanji": "元気",
    "Hiragana": "げんき",
    "English": "health, vitality"
  },
  {
    "Kanji": "五",
    "Hiragana": "ご",
    "English": "Five"
  },
  {
    "Kanji": "公園",
    "Hiragana": "こうえん",
    "English": "Park"
  },
  {
    "Kanji": "交差点",
    "Hiragana": "こうさてん",
    "English": "intersection"
  },
  {
    "Kanji": "紅茶",
    "Hiragana": "こうちゃ",
    "English": "black tea"
  },
  {
    "Kanji": "交番",
    "Hiragana": "こうばん",
    "English": "police box"
  },
  {
    "Kanji": "声",
    "Hiragana": "こえ",
    "English": "Voice"
  },
  {
    "Kanji": "",
    "Hiragana": "コート",
    "English": "coat, tennis court"
  },
  {
    "Kanji": "",
    "Hiragana": "コーヒー",
    "English": "Coffee"
  },
  {
    "Kanji": "",
    "Hiragana": "ここ",
    "English": "Here"
  },
  {
    "Kanji": "午後",
    "Hiragana": "ごご",
    "English": "afternoon"
  },
  {
    "Kanji": "九日",
    "Hiragana": "ここのか",
    "English": "nine days, ninth day"
  },
  {
    "Kanji": "九つ",
    "Hiragana": "ここのつ",
    "English": "Nine"
  },
  {
    "Kanji": "午前",
    "Hiragana": "ごぜん",
    "English": "morning"
  },
  {
    "Kanji": "答える",
    "Hiragana": "こたえる",
    "English": "to answer"
  },
  {
    "Kanji": "",
    "Hiragana": "こちら",
    "English": "this person or way"
  },
  {
    "Kanji": "",
    "Hiragana": "こっち",
    "English": "this person or way"
  },
  {
    "Kanji": "",
    "Hiragana": "コップ",
    "English": "a glass"
  },
  {
    "Kanji": "今年",
    "Hiragana": "ことし",
    "English": "this year"
  },
  {
    "Kanji": "言葉",
    "Hiragana": "ことば",
    "English": "word, language"
  },
  {
    "Kanji": "子供",
    "Hiragana": "こども",
    "English": "Child"
  },
  {
    "Kanji": "",
    "Hiragana": "この",
    "English": "This"
  },
  {
    "Kanji": "御飯",
    "Hiragana": "ごはん",
    "English": "cooked rice, meal"
  },
  {
    "Kanji": "",
    "Hiragana": "コピーする",
    "English": "to copy"
  },
  {
    "Kanji": "困る",
    "Hiragana": "こまる",
    "English": "to be worried"
  },
  {
    "Kanji": "",
    "Hiragana": "これ",
    "English": "This"
  },
  {
    "Kanji": "今月",
    "Hiragana": "こんげつ",
    "English": "this month"
  },
  {
    "Kanji": "今週",
    "Hiragana": "こんしゅう",
    "English": "this week"
  },
  {
    "Kanji": "",
    "Hiragana": "こんな",
    "English": "Such"
  },
  {
    "Kanji": "今晩",
    "Hiragana": "こんばん",
    "English": "this evening"
  },
  {
    "Kanji": "",
    "Hiragana": "さあ",
    "English": "well…"
  },
  {
    "Kanji": "財布",
    "Hiragana": "さいふ",
    "English": "Wallet"
  },
  {
    "Kanji": "魚",
    "Hiragana": "さかな",
    "English": "Fish"
  },
  {
    "Kanji": "先",
    "Hiragana": "さき",
    "English": "the future, previous"
  },
  {
    "Kanji": "咲く",
    "Hiragana": "さく",
    "English": "to bloom"
  },
  {
    "Kanji": "作文",
    "Hiragana": "さくぶん",
    "English": "composition, writing"
  },
  {
    "Kanji": "差す",
    "Hiragana": "さす",
    "English": "to stretch out hands, to raise an umbrella"
  },
  {
    "Kanji": "雑誌",
    "Hiragana": "ざっし",
    "English": "Magazine"
  },
  {
    "Kanji": "砂糖",
    "Hiragana": "さとう",
    "English": "Sugar"
  },
  {
    "Kanji": "寒い",
    "Hiragana": "さむい",
    "English": "Cold"
  },
  {
    "Kanji": "さ来年",
    "Hiragana": "さらいねん",
    "English": "year after next"
  },
  {
    "Kanji": "三",
    "Hiragana": "さん",
    "English": "Three"
  },
  {
    "Kanji": "散歩",
    "Hiragana": "さんぽする",
    "English": "to stroll"
  },
  {
    "Kanji": "四",
    "Hiragana": "し / よん",
    "English": "Four"
  },
  {
    "Kanji": "塩",
    "Hiragana": "しお",
    "English": "Salt"
  },
  {
    "Kanji": "",
    "Hiragana": "しかし",
    "English": "However"
  },
  {
    "Kanji": "時間",
    "Hiragana": "じかん",
    "English": "Time"
  },
  {
    "Kanji": "仕事",
    "Hiragana": "しごと",
    "English": "Job"
  },
  {
    "Kanji": "辞書",
    "Hiragana": "じしょ",
    "English": "Dictionary"
  },
  {
    "Kanji": "静か",
    "Hiragana": "しずか",
    "English": "Quiet"
  },
  {
    "Kanji": "下",
    "Hiragana": "した",
    "English": "Below"
  },
  {
    "Kanji": "七",
    "Hiragana": "しち / なな",
    "English": "Seven"
  },
  {
    "Kanji": "質問",
    "Hiragana": "しつもん",
    "English": "Question"
  },
  {
    "Kanji": "自転車",
    "Hiragana": "じてんしゃ",
    "English": "Bicycle"
  },
  {
    "Kanji": "自動車",
    "Hiragana": "じどうしゃ",
    "English": "Automobile"
  },
  {
    "Kanji": "死ぬ",
    "Hiragana": "しぬ",
    "English": "to die"
  },
  {
    "Kanji": "字引",
    "Hiragana": "じびき",
    "English": "Dictionary"
  },
  {
    "Kanji": "自分",
    "Hiragana": "じぶん",
    "English": "Oneself"
  },
  {
    "Kanji": "閉まる",
    "Hiragana": "しまる",
    "English": "to close, to be closed"
  },
  {
    "Kanji": "閉める",
    "Hiragana": "しめる",
    "English": "to close something"
  },
  {
    "Kanji": "締める",
    "Hiragana": "しめる",
    "English": "to tie"
  },
  {
    "Kanji": "",
    "Hiragana": "じゃ/じゃあ",
    "English": "well then…"
  },
  {
    "Kanji": "写真",
    "Hiragana": "しゃしん",
    "English": "photograph"
  },
  {
    "Kanji": "",
    "Hiragana": "シャツ",
    "English": "Shirt"
  },
  {
    "Kanji": "",
    "Hiragana": "シャワー",
    "English": "Shower"
  },
  {
    "Kanji": "十",
    "Hiragana": "じゅう とお",
    "English": "Ten"
  },
  {
    "Kanji": "授業",
    "Hiragana": "じゅぎょう",
    "English": "lesson, class work"
  },
  {
    "Kanji": "宿題",
    "Hiragana": "しゅくだい",
    "English": "homework"
  },
  {
    "Kanji": "上手",
    "Hiragana": "じょうず",
    "English": "Skillful"
  },
  {
    "Kanji": "丈夫",
    "Hiragana": "じょうぶ",
    "English": "strong, durable"
  },
  {
    "Kanji": "",
    "Hiragana": "しょうゆ",
    "English": "soy sauce"
  },
  {
    "Kanji": "食堂",
    "Hiragana": "しょくどう",
    "English": "dining hall"
  },
  {
    "Kanji": "知る",
    "Hiragana": "しる",
    "English": "to know"
  },
  {
    "Kanji": "白",
    "Hiragana": "しろ",
    "English": "White"
  },
  {
    "Kanji": "白い",
    "Hiragana": "しろい",
    "English": "White"
  },
  {
    "Kanji": "新聞",
    "Hiragana": "しんぶん",
    "English": "newspaper"
  },
  {
    "Kanji": "水曜日",
    "Hiragana": "すいようび",
    "English": "Wednesday"
  },
  {
    "Kanji": "吸う",
    "Hiragana": "すう",
    "English": "to smoke, to suck"
  },
  {
    "Kanji": "",
    "Hiragana": "スカート",
    "English": "Skirt"
  },
  {
    "Kanji": "好き",
    "Hiragana": "すき",
    "English": "Likeable"
  },
  {
    "Kanji": "少ない",
    "Hiragana": "すくない",
    "English": "a few"
  },
  {
    "Kanji": "",
    "Hiragana": "すぐに",
    "English": "Instantly"
  },
  {
    "Kanji": "少し",
    "Hiragana": "すこし",
    "English": "Few"
  },
  {
    "Kanji": "涼しい",
    "Hiragana": "すずしい",
    "English": "Refreshing"
  },
  {
    "Kanji": "",
    "Hiragana": "ストーブ",
    "English": "Heater"
  },
  {
    "Kanji": "",
    "Hiragana": "スプーン",
    "English": "Spoon"
  },
  {
    "Kanji": "",
    "Hiragana": "スポーツ",
    "English": "Sport"
  },
  {
    "Kanji": "",
    "Hiragana": "ズボン",
    "English": "Trousers"
  },
  {
    "Kanji": "住む",
    "Hiragana": "すむ",
    "English": "to live in"
  },
  {
    "Kanji": "",
    "Hiragana": "スリッパ",
    "English": "Slippers"
  },
  {
    "Kanji": "",
    "Hiragana": "する",
    "English": "to do"
  },
  {
    "Kanji": "座る",
    "Hiragana": "すわる",
    "English": "to sit"
  },
  {
    "Kanji": "背",
    "Hiragana": "せ",
    "English": "height, stature"
  },
  {
    "Kanji": "生徒",
    "Hiragana": "せいと",
    "English": "Pupil"
  },
  {
    "Kanji": "",
    "Hiragana": "セーター",
    "English": "sweater, jumper"
  },
  {
    "Kanji": "",
    "Hiragana": "せっけん",
    "English": "Economy"
  },
  {
    "Kanji": "背広",
    "Hiragana": "せびろ",
    "English": "business suit"
  },
  {
    "Kanji": "狭い",
    "Hiragana": "せまい",
    "English": "Narrow"
  },
  {
    "Kanji": "",
    "Hiragana": "ゼロ",
    "English": "Zero"
  },
  {
    "Kanji": "千",
    "Hiragana": "せん",
    "English": "Thousand"
  },
  {
    "Kanji": "先月",
    "Hiragana": "せんげつ",
    "English": "last month"
  },
  {
    "Kanji": "先週",
    "Hiragana": "せんしゅう",
    "English": "last week"
  },
  {
    "Kanji": "先生",
    "Hiragana": "せんせい",
    "English": "teacher, doctor"
  },
  {
    "Kanji": "洗濯",
    "Hiragana": "せんたく",
    "English": "Washing"
  },
  {
    "Kanji": "全部",
    "Hiragana": "ぜんぶ",
    "English": "All"
  },
  {
    "Kanji": "掃除",
    "Hiragana": "そうじする",
    "English": "to clean, to sweep"
  },
  {
    "Kanji": "",
    "Hiragana": "そうして/そして",
    "English": "And"
  },
  {
    "Kanji": "",
    "Hiragana": "そこ",
    "English": "that place"
  },
  {
    "Kanji": "",
    "Hiragana": "そちら",
    "English": "over there"
  },
  {
    "Kanji": "",
    "Hiragana": "そっち",
    "English": "over there"
  },
  {
    "Kanji": "外",
    "Hiragana": "そと",
    "English": "Outside"
  },
  {
    "Kanji": "",
    "Hiragana": "その",
    "English": "That"
  },
  {
    "Kanji": "",
    "Hiragana": "そば",
    "English": "near, beside"
  },
  {
    "Kanji": "空",
    "Hiragana": "そら",
    "English": "Sky"
  },
  {
    "Kanji": "",
    "Hiragana": "それ",
    "English": "that"
  },
  {
    "Kanji": "",
    "Hiragana": "それから",
    "English": "after that"
  },
  {
    "Kanji": "",
    "Hiragana": "それでは",
    "English": "in that situation"
  },
  {
    "Kanji": "大学",
    "Hiragana": "だいがく",
    "English": "university"
  },
  {
    "Kanji": "大使館",
    "Hiragana": "たいしかん",
    "English": "embassy"
  },
  {
    "Kanji": "大丈夫",
    "Hiragana": "だいじょうぶ",
    "English": "all right"
  },
  {
    "Kanji": "大好き",
    "Hiragana": "だいすき",
    "English": "to be very likeable"
  },
  {
    "Kanji": "大切",
    "Hiragana": "たいせつ",
    "English": "important"
  },
  {
    "Kanji": "台所",
    "Hiragana": "だいどころ",
    "English": "kitchen"
  },
  {
    "Kanji": "",
    "Hiragana": "たいへん",
    "English": "very"
  },
  {
    "Kanji": "",
    "Hiragana": "たいへん",
    "English": "difficult situation"
  },
  {
    "Kanji": "高い",
    "Hiragana": "たかい",
    "English": "tall, expensive"
  },
  {
    "Kanji": "",
    "Hiragana": "たくさん",
    "English": "many"
  },
  {
    "Kanji": "",
    "Hiragana": "タクシー",
    "English": "taxi"
  },
  {
    "Kanji": "出す",
    "Hiragana": "だす",
    "English": "to put out"
  },
  {
    "Kanji": "立つ",
    "Hiragana": "たつ",
    "English": "to stand"
  },
  {
    "Kanji": "",
    "Hiragana": "たて",
    "English": "length,height"
  },
  {
    "Kanji": "建物",
    "Hiragana": "たてもの",
    "English": "building"
  },
  {
    "Kanji": "楽しい",
    "Hiragana": "たのしい",
    "English": "enjoyable"
  },
  {
    "Kanji": "頼む",
    "Hiragana": "たのむ",
    "English": "to ask"
  },
  {
    "Kanji": "",
    "Hiragana": "たばこ",
    "English": "tobacco,cigarettes"
  },
  {
    "Kanji": "",
    "Hiragana": "たぶん",
    "English": "probably"
  },
  {
    "Kanji": "食べ物",
    "Hiragana": "たべもの",
    "English": "food"
  },
  {
    "Kanji": "食べる",
    "Hiragana": "たべる",
    "English": "to eat"
  },
  {
    "Kanji": "卵",
    "Hiragana": "たまご",
    "English": "egg"
  },
  {
    "Kanji": "誰",
    "Hiragana": "だれ",
    "English": "who"
  },
  {
    "Kanji": "誰",
    "Hiragana": "だれか",
    "English": "somebody"
  },
  {
    "Kanji": "誕生日",
    "Hiragana": "たんじょうび",
    "English": "birthday"
  },
  {
    "Kanji": "",
    "Hiragana": "だんだん",
    "English": "gradually"
  },
  {
    "Kanji": "小さい",
    "Hiragana": "ちいさい",
    "English": "little"
  },
  {
    "Kanji": "小さな",
    "Hiragana": "ちいさな",
    "English": "little"
  },
  {
    "Kanji": "近い",
    "Hiragana": "ちかい",
    "English": "near"
  },
  {
    "Kanji": "違う",
    "Hiragana": "ちがう",
    "English": "to differ"
  },
  {
    "Kanji": "近く",
    "Hiragana": "ちかく",
    "English": "near"
  },
  {
    "Kanji": "地下鉄",
    "Hiragana": "ちかてつ",
    "English": "underground train"
  },
  {
    "Kanji": "地図",
    "Hiragana": "ちず",
    "English": "map"
  },
  {
    "Kanji": "茶色",
    "Hiragana": "ちゃいろ",
    "English": "brown"
  },
  {
    "Kanji": "",
    "Hiragana": "ちゃわん",
    "English": "rice bowl"
  },
  {
    "Kanji": "",
    "Hiragana": "ちょうど",
    "English": "exactly"
  },
  {
    "Kanji": "",
    "Hiragana": "ちょっと",
    "English": "somewhat"
  },
  {
    "Kanji": "一日",
    "Hiragana": "ついたち",
    "English": "first of month"
  },
  {
    "Kanji": "使う",
    "Hiragana": "つかう",
    "English": "to use"
  },
  {
    "Kanji": "疲れる",
    "Hiragana": "つかれる",
    "English": "to get tired"
  },
  {
    "Kanji": "次",
    "Hiragana": "つぎ",
    "English": "next"
  },
  {
    "Kanji": "着く",
    "Hiragana": "つく",
    "English": "to arrive at"
  },
  {
    "Kanji": "机",
    "Hiragana": "つくえ",
    "English": "desk"
  },
  {
    "Kanji": "作る",
    "Hiragana": "つくる",
    "English": "to make"
  },
  {
    "Kanji": "",
    "Hiragana": "つける",
    "English": "to turn on"
  },
  {
    "Kanji": "勤める",
    "Hiragana": "つとめる",
    "English": "to work for someone"
  },
  {
    "Kanji": "",
    "Hiragana": "つまらない",
    "English": "boring"
  },
  {
    "Kanji": "冷たい",
    "Hiragana": "つめたい",
    "English": "cold to the touch"
  },
  {
    "Kanji": "強い",
    "Hiragana": "つよい",
    "English": "powerful"
  },
  {
    "Kanji": "手",
    "Hiragana": "て",
    "English": "hand"
  },
  {
    "Kanji": "",
    "Hiragana": "テープ",
    "English": "tape"
  },
  {
    "Kanji": "",
    "Hiragana": "テーブル",
    "English": "table"
  },
  {
    "Kanji": "",
    "Hiragana": "テープレコーダー",
    "English": "tape recorder"
  },
  {
    "Kanji": "出かける",
    "Hiragana": "でかける",
    "English": "to go out"
  },
  {
    "Kanji": "手紙",
    "Hiragana": "てがみ",
    "English": "letter"
  },
  {
    "Kanji": "",
    "Hiragana": "できる",
    "English": "to be able to"
  },
  {
    "Kanji": "出口",
    "Hiragana": "でぐち",
    "English": "exit"
  },
  {
    "Kanji": "",
    "Hiragana": "テスト",
    "English": "test"
  },
  {
    "Kanji": "",
    "Hiragana": "では",
    "English": "with that..."
  },
  {
    "Kanji": "",
    "Hiragana": "デパート",
    "English": "department store"
  },
  {
    "Kanji": "",
    "Hiragana": "でも",
    "English": "but"
  },
  {
    "Kanji": "出る",
    "Hiragana": "でる",
    "English": "to appear,to leave"
  },
  {
    "Kanji": "",
    "Hiragana": "テレビ",
    "English": "television"
  },
  {
    "Kanji": "天気",
    "Hiragana": "てんき",
    "English": "weather"
  },
  {
    "Kanji": "電気",
    "Hiragana": "でんき",
    "English": "electricity,electric light"
  },
  {
    "Kanji": "電車",
    "Hiragana": "でんしゃ",
    "English": "electric train"
  },
  {
    "Kanji": "電話",
    "Hiragana": "でんわ",
    "English": "telephone"
  },
  {
    "Kanji": "戸",
    "Hiragana": "と",
    "English": "Japanese style door"
  },
  {
    "Kanji": "",
    "Hiragana": "ドア",
    "English": "Western style door"
  },
  {
    "Kanji": "",
    "Hiragana": "トイレ",
    "English": "toilet"
  },
  {
    "Kanji": "",
    "Hiragana": "どう",
    "English": "how,in what way"
  },
  {
    "Kanji": "",
    "Hiragana": "どうして",
    "English": "for what reason"
  },
  {
    "Kanji": "",
    "Hiragana": "どうぞ",
    "English": "please"
  },
  {
    "Kanji": "動物",
    "Hiragana": "どうぶつ",
    "English": "animal"
  },
  {
    "Kanji": "",
    "Hiragana": "どうも",
    "English": "thanks"
  },
  {
    "Kanji": "遠い",
    "Hiragana": "とおい",
    "English": "far"
  },
  {
    "Kanji": "十日",
    "Hiragana": "とおか",
    "English": "ten days,the tenth day"
  },
  {
    "Kanji": "時々",
    "Hiragana": "ときどき",
    "English": "sometimes"
  },
  {
    "Kanji": "時計",
    "Hiragana": "とけい",
    "English": "watch,clock"
  },
  {
    "Kanji": "",
    "Hiragana": "どこ",
    "English": "where"
  },
  {
    "Kanji": "所",
    "Hiragana": "ところ",
    "English": "place"
  },
  {
    "Kanji": "年",
    "Hiragana": "とし",
    "English": "year"
  },
  {
    "Kanji": "図書館",
    "Hiragana": "としょかん",
    "English": "library"
  },
  {
    "Kanji": "",
    "Hiragana": "どちら",
    "English": "which of two"
  },
  {
    "Kanji": "",
    "Hiragana": "どっち",
    "English": "which"
  },
  {
    "Kanji": "",
    "Hiragana": "とても",
    "English": "very"
  },
  {
    "Kanji": "",
    "Hiragana": "どなた",
    "English": "who"
  },
  {
    "Kanji": "隣",
    "Hiragana": "となり",
    "English": "next door to"
  },
  {
    "Kanji": "",
    "Hiragana": "どの",
    "English": "which"
  },
  {
    "Kanji": "飛ぶ",
    "Hiragana": "とぶ",
    "English": "to fly,to hop"
  },
  {
    "Kanji": "止まる",
    "Hiragana": "とまる",
    "English": "to come to a halt"
  },
  {
    "Kanji": "友達",
    "Hiragana": "ともだち",
    "English": "friend"
  },
  {
    "Kanji": "土曜日",
    "Hiragana": "どようび",
    "English": "Saturday"
  },
  {
    "Kanji": "鳥",
    "Hiragana": "とり",
    "English": "bird"
  },
  {
    "Kanji": "とり肉",
    "Hiragana": "とりにく",
    "English": "chicken meat"
  },
  {
    "Kanji": "取る",
    "Hiragana": "とる",
    "English": "to take something"
  },
  {
    "Kanji": "撮る",
    "Hiragana": "とる",
    "English": "to take a photo or record a film"
  },
  {
    "Kanji": "",
    "Hiragana": "どれ",
    "English": "which (of three or more)"
  },
  {
    "Kanji": "",
    "Hiragana": "ナイフ",
    "English": "knife"
  },
  {
    "Kanji": "中",
    "Hiragana": "なか",
    "English": "middle"
  },
  {
    "Kanji": "長い",
    "Hiragana": "ながい",
    "English": "long"
  },
  {
    "Kanji": "鳴く",
    "Hiragana": "なく",
    "English": "animal noise. to chirp, roar or croak etc."
  },
  {
    "Kanji": "無くす",
    "Hiragana": "なくす",
    "English": "to lose something"
  },
  {
    "Kanji": "",
    "Hiragana": "なぜ",
    "English": "why"
  },
  {
    "Kanji": "夏",
    "Hiragana": "なつ",
    "English": "summer"
  },
  {
    "Kanji": "夏休み",
    "Hiragana": "なつやすみ",
    "English": "summer holiday"
  },
  {
    "Kanji": "",
    "Hiragana": "など",
    "English": "et cetera"
  },
  {
    "Kanji": "七つ",
    "Hiragana": "ななつ",
    "English": "seven"
  },
  {
    "Kanji": "七日",
    "Hiragana": "なのか",
    "English": "seven days,the seventh day"
  },
  {
    "Kanji": "名前",
    "Hiragana": "なまえ",
    "English": "name"
  },
  {
    "Kanji": "習う",
    "Hiragana": "ならう",
    "English": "to learn"
  },
  {
    "Kanji": "並ぶ",
    "Hiragana": "ならぶ",
    "English": "to line up,to stand in a line"
  },
  {
    "Kanji": "並べる",
    "Hiragana": "ならべる",
    "English": "to line up,to set up"
  },
  {
    "Kanji": "",
    "Hiragana": "なる",
    "English": "to become"
  },
  {
    "Kanji": "何",
    "Hiragana": "なん/なに",
    "English": "what"
  },
  {
    "Kanji": "二",
    "Hiragana": "に",
    "English": "two"
  },
  {
    "Kanji": "賑やか",
    "Hiragana": "にぎやか",
    "English": "bustling,busy"
  },
  {
    "Kanji": "肉",
    "Hiragana": "にく",
    "English": "meat"
  },
  {
    "Kanji": "西",
    "Hiragana": "にし",
    "English": "west"
  },
  {
    "Kanji": "日曜日",
    "Hiragana": "にちようび",
    "English": "Sunday"
  },
  {
    "Kanji": "荷物",
    "Hiragana": "にもつ",
    "English": "luggage"
  },
  {
    "Kanji": "",
    "Hiragana": "ニュース",
    "English": "news"
  },
  {
    "Kanji": "庭",
    "Hiragana": "にわ",
    "English": "garden"
  },
  {
    "Kanji": "脱ぐ",
    "Hiragana": "ぬぐ",
    "English": "to take off clothes"
  },
  {
    "Kanji": "温い",
    "Hiragana": "ぬるい",
    "English": "luke warm"
  },
  {
    "Kanji": "",
    "Hiragana": "ネクタイ",
    "English": "tie,necktie"
  },
  {
    "Kanji": "猫",
    "Hiragana": "ねこ",
    "English": "cat"
  },
  {
    "Kanji": "寝る",
    "Hiragana": "ねる",
    "English": "to go to bed,to sleep"
  },
  {
    "Kanji": "",
    "Hiragana": "ノート",
    "English": "notebook,exercise book"
  },
  {
    "Kanji": "登る",
    "Hiragana": "のぼる",
    "English": "to climb"
  },
  {
    "Kanji": "飲み物",
    "Hiragana": "のみもの",
    "English": "a drink"
  },
  {
    "Kanji": "飲む",
    "Hiragana": "のむ",
    "English": "to drink"
  },
  {
    "Kanji": "乗る",
    "Hiragana": "のる",
    "English": "to get on,to ride"
  },
  {
    "Kanji": "歯",
    "Hiragana": "は",
    "English": "tooth"
  },
  {
    "Kanji": "",
    "Hiragana": "パーティー",
    "English": "party"
  },
  {
    "Kanji": "",
    "Hiragana": "はい",
    "English": "yes"
  },
  {
    "Kanji": "灰皿",
    "Hiragana": "はいざら",
    "English": "ashtray"
  },
  {
    "Kanji": "入る",
    "Hiragana": "はいる",
    "English": "to enter,to contain"
  },
  {
    "Kanji": "葉書",
    "Hiragana": "はがき",
    "English": "postcard"
  },
  {
    "Kanji": "",
    "Hiragana": "はく",
    "English": "to wear,to put on trousers"
  },
  {
    "Kanji": "箱",
    "Hiragana": "はこ",
    "English": "box"
  },
  {
    "Kanji": "橋",
    "Hiragana": "はし",
    "English": "bridge"
  },
  {
    "Kanji": "",
    "Hiragana": "はし",
    "English": "chopsticks"
  },
  {
    "Kanji": "始まる",
    "Hiragana": "はじまる",
    "English": "to begin"
  },
  {
    "Kanji": "初め/始め",
    "Hiragana": "はじめ",
    "English": "beginning"
  },
  {
    "Kanji": "初めて",
    "Hiragana": "はじめて",
    "English": "for the first time"
  },
  {
    "Kanji": "走る",
    "Hiragana": "はしる",
    "English": "to run"
  },
  {
    "Kanji": "",
    "Hiragana": "バス",
    "English": "bus"
  },
  {
    "Kanji": "",
    "Hiragana": "バター",
    "English": "butter"
  },
  {
    "Kanji": "二十歳",
    "Hiragana": "はたち",
    "English": "20 years old,20th year"
  },
  {
    "Kanji": "働く",
    "Hiragana": "はたらく",
    "English": "to work"
  },
  {
    "Kanji": "八",
    "Hiragana": "はち",
    "English": "eight"
  },
  {
    "Kanji": "二十日",
    "Hiragana": "はつか",
    "English": "twenty days,twentieth"
  },
  {
    "Kanji": "花",
    "Hiragana": "はな",
    "English": "flower"
  },
  {
    "Kanji": "鼻",
    "Hiragana": "はな",
    "English": "nose"
  },
  {
    "Kanji": "話",
    "Hiragana": "はなし",
    "English": "talk,story"
  },
  {
    "Kanji": "話す",
    "Hiragana": "はなす",
    "English": "to speak"
  },
  {
    "Kanji": "早い",
    "Hiragana": "はやい",
    "English": "early"
  },
  {
    "Kanji": "速い",
    "Hiragana": "はやい",
    "English": "quick"
  },
  {
    "Kanji": "春",
    "Hiragana": "はる",
    "English": "spring"
  },
  {
    "Kanji": "貼る",
    "Hiragana": "はる",
    "English": "to stick"
  },
  {
    "Kanji": "晴れ",
    "Hiragana": "はれ",
    "English": "clear weather"
  },
  {
    "Kanji": "晴れる",
    "Hiragana": "はれる",
    "English": "to be sunny"
  },
  {
    "Kanji": "半",
    "Hiragana": "はん",
    "English": "half"
  },
  {
    "Kanji": "晩",
    "Hiragana": "ばん",
    "English": "evening"
  },
  {
    "Kanji": "",
    "Hiragana": "パン",
    "English": "bread"
  },
  {
    "Kanji": "",
    "Hiragana": "ハンカチ",
    "English": "handkerchief"
  },
  {
    "Kanji": "番号",
    "Hiragana": "ばんごう",
    "English": "number"
  },
  {
    "Kanji": "晩御飯",
    "Hiragana": "ばんごはん",
    "English": "evening meal"
  },
  {
    "Kanji": "半分",
    "Hiragana": "はんぶん",
    "English": "half minute"
  },
  {
    "Kanji": "東",
    "Hiragana": "ひがし",
    "English": "east"
  },
  {
    "Kanji": "引く",
    "Hiragana": "ひく",
    "English": "to pull"
  },
  {
    "Kanji": "弾く",
    "Hiragana": "ひく",
    "English": "to play an instrument with strings, including piano"
  },
  {
    "Kanji": "低い",
    "Hiragana": "ひくい",
    "English": "short,low"
  },
  {
    "Kanji": "飛行機",
    "Hiragana": "ひこうき",
    "English": "aeroplane"
  },
  {
    "Kanji": "左",
    "Hiragana": "ひだり",
    "English": "left hand side"
  },
  {
    "Kanji": "人",
    "Hiragana": "ひと",
    "English": "person"
  },
  {
    "Kanji": "一つ",
    "Hiragana": "ひとつ",
    "English": "one"
  },
  {
    "Kanji": "一月",
    "Hiragana": "ひとつき",
    "English": "one month"
  },
  {
    "Kanji": "一人",
    "Hiragana": "ひとり",
    "English": "one person"
  },
  {
    "Kanji": "暇",
    "Hiragana": "ひま",
    "English": "free time"
  },
  {
    "Kanji": "百",
    "Hiragana": "ひゃく",
    "English": "hundred"
  },
  {
    "Kanji": "病院",
    "Hiragana": "びょういん",
    "English": "hospital"
  },
  {
    "Kanji": "病気",
    "Hiragana": "びょうき",
    "English": "illness"
  },
  {
    "Kanji": "昼",
    "Hiragana": "ひる",
    "English": "noon, daytime"
  },
  {
    "Kanji": "昼御飯",
    "Hiragana": "ひるごはん",
    "English": "midday meal"
  },
  {
    "Kanji": "広い",
    "Hiragana": "ひろい",
    "English": "spacious,wide"
  },
  {
    "Kanji": "",
    "Hiragana": "フィルム",
    "English": "roll of film"
  },
  {
    "Kanji": "封筒",
    "Hiragana": "ふうとう",
    "English": "envelope"
  },
  {
    "Kanji": "",
    "Hiragana": "プール",
    "English": "swimming pool"
  },
  {
    "Kanji": "",
    "Hiragana": "フォーク",
    "English": "fork"
  },
  {
    "Kanji": "吹く",
    "Hiragana": "ふく",
    "English": "to blow"
  },
  {
    "Kanji": "服",
    "Hiragana": "ふく",
    "English": "clothes"
  },
  {
    "Kanji": "二つ",
    "Hiragana": "ふたつ",
    "English": "two"
  },
  {
    "Kanji": "豚肉",
    "Hiragana": "ぶたにく",
    "English": "pork"
  },
  {
    "Kanji": "二人",
    "Hiragana": "ふたり",
    "English": "two people"
  },
  {
    "Kanji": "二日",
    "Hiragana": "ふつか",
    "English": "two days, second day of the month"
  },
  {
    "Kanji": "太い",
    "Hiragana": "ふとい",
    "English": "fat"
  },
  {
    "Kanji": "冬",
    "Hiragana": "ふゆ",
    "English": "winter"
  },
  {
    "Kanji": "降る",
    "Hiragana": "ふる",
    "English": "to fall, e.g. rain or snow"
  },
  {
    "Kanji": "古い",
    "Hiragana": "ふるい",
    "English": "old (not used for people)"
  },
  {
    "Kanji": "",
    "Hiragana": "ふろ",
    "English": "bath"
  },
  {
    "Kanji": "文章",
    "Hiragana": "ぶんしょう",
    "English": "sentence,text"
  },
  {
    "Kanji": "",
    "Hiragana": "ページ",
    "English": "page"
  },
  {
    "Kanji": "下手",
    "Hiragana": "へた",
    "English": "unskillful"
  },
  {
    "Kanji": "",
    "Hiragana": "ベッド",
    "English": "bed"
  },
  {
    "Kanji": "",
    "Hiragana": "ペット",
    "English": "pet"
  },
  {
    "Kanji": "部屋",
    "Hiragana": "へや",
    "English": "room"
  },
  {
    "Kanji": "辺",
    "Hiragana": "へん",
    "English": "area"
  },
  {
    "Kanji": "",
    "Hiragana": "ペン",
    "English": "pen"
  },
  {
    "Kanji": "勉強",
    "Hiragana": "べんきょうする",
    "English": "to study"
  },
  {
    "Kanji": "便利",
    "Hiragana": "べんり",
    "English": "useful, convenient"
  },
  {
    "Kanji": "帽子",
    "Hiragana": "ぼうし",
    "English": "hat"
  },
  {
    "Kanji": "",
    "Hiragana": "ボールペン",
    "English": "ball-point pen"
  },
  {
    "Kanji": "",
    "Hiragana": "ほか",
    "English": "other, the rest"
  },
  {
    "Kanji": "",
    "Hiragana": "ポケット",
    "English": "pocket"
  },
  {
    "Kanji": "欲しい",
    "Hiragana": "ほしい",
    "English": "want"
  },
  {
    "Kanji": "",
    "Hiragana": "ポスト",
    "English": "post"
  },
  {
    "Kanji": "細い",
    "Hiragana": "ほそい",
    "English": "thin"
  },
  {
    "Kanji": "",
    "Hiragana": "ボタン",
    "English": "button"
  },
  {
    "Kanji": "",
    "Hiragana": "ホテル",
    "English": "hotel"
  },
  {
    "Kanji": "本",
    "Hiragana": "ほん",
    "English": "book"
  },
  {
    "Kanji": "本棚",
    "Hiragana": "ほんだな",
    "English": "bookshelves"
  },
  {
    "Kanji": "",
    "Hiragana": "ほんとう",
    "English": "truth"
  },
  {
    "Kanji": "毎朝",
    "Hiragana": "まいあさ",
    "English": "every morning"
  },
  {
    "Kanji": "毎月",
    "Hiragana": "まいげつ/まいつき",
    "English": "every month"
  },
  {
    "Kanji": "毎週",
    "Hiragana": "まいしゅう",
    "English": "every week"
  },
  {
    "Kanji": "毎日",
    "Hiragana": "まいにち",
    "English": "every day"
  },
  {
    "Kanji": "毎年",
    "Hiragana": "まいねん/まいとし",
    "English": "every year"
  },
  {
    "Kanji": "毎晩",
    "Hiragana": "まいばん",
    "English": "every night"
  },
  {
    "Kanji": "前",
    "Hiragana": "まえ",
    "English": "before"
  },
  {
    "Kanji": "曲る",
    "Hiragana": "まがる",
    "English": "to turn,to bend"
  },
  {
    "Kanji": "",
    "Hiragana": "まずい",
    "English": "unpleasant"
  },
  {
    "Kanji": "",
    "Hiragana": "また",
    "English": "again,and"
  },
  {
    "Kanji": "",
    "Hiragana": "まだ",
    "English": "yet,still"
  },
  {
    "Kanji": "町",
    "Hiragana": "まち",
    "English": "town,city"
  },
  {
    "Kanji": "待つ",
    "Hiragana": "まつ",
    "English": "to wait"
  },
  {
    "Kanji": "",
    "Hiragana": "まっすぐ",
    "English": "straight ahead,direct"
  },
  {
    "Kanji": "",
    "Hiragana": "マッチ",
    "English": "match"
  },
  {
    "Kanji": "窓",
    "Hiragana": "まど",
    "English": "window"
  },
  {
    "Kanji": "丸い/円い",
    "Hiragana": "まるい",
    "English": "round,circular"
  },
  {
    "Kanji": "万",
    "Hiragana": "まん",
    "English": "ten thousand"
  },
  {
    "Kanji": "万年筆",
    "Hiragana": "まんねんひつ",
    "English": "fountain pen"
  },
  {
    "Kanji": "磨く",
    "Hiragana": "みがく",
    "English": "to brush teeth, to polish"
  },
  {
    "Kanji": "右",
    "Hiragana": "みぎ",
    "English": "right side"
  },
  {
    "Kanji": "短い",
    "Hiragana": "みじかい",
    "English": "short"
  },
  {
    "Kanji": "水",
    "Hiragana": "みず",
    "English": "water"
  },
  {
    "Kanji": "店",
    "Hiragana": "みせ",
    "English": "shop"
  },
  {
    "Kanji": "見せる",
    "Hiragana": "みせる",
    "English": "to show"
  },
  {
    "Kanji": "道",
    "Hiragana": "みち",
    "English": "street"
  },
  {
    "Kanji": "三日",
    "Hiragana": "みっか",
    "English": "three days, third day of the month"
  },
  {
    "Kanji": "三つ",
    "Hiragana": "みっつ",
    "English": "three"
  },
  {
    "Kanji": "緑",
    "Hiragana": "みどり",
    "English": "green"
  },
  {
    "Kanji": "皆さん",
    "Hiragana": "みなさん",
    "English": "everyone"
  },
  {
    "Kanji": "南",
    "Hiragana": "みなみ",
    "English": "south"
  },
  {
    "Kanji": "耳",
    "Hiragana": "みみ",
    "English": "ear"
  },
  {
    "Kanji": "見る 観る",
    "Hiragana": "みる",
    "English": "to see, to watch"
  },
  {
    "Kanji": "",
    "Hiragana": "みんな",
    "English": "everyone"
  },
  {
    "Kanji": "六日",
    "Hiragana": "むいか",
    "English": "six days, sixth day of the month"
  },
  {
    "Kanji": "向こう",
    "Hiragana": "むこう",
    "English": "over there"
  },
  {
    "Kanji": "難しい",
    "Hiragana": "むずかしい",
    "English": "difficult"
  },
  {
    "Kanji": "六つ",
    "Hiragana": "むっつ",
    "English": "six"
  },
  {
    "Kanji": "村",
    "Hiragana": "むら",
    "English": "village"
  },
  {
    "Kanji": "目",
    "Hiragana": "め",
    "English": "eye"
  },
  {
    "Kanji": "",
    "Hiragana": "メートル",
    "English": "metre"
  },
  {
    "Kanji": "眼鏡",
    "Hiragana": "めがね",
    "English": "glasses"
  },
  {
    "Kanji": "",
    "Hiragana": "もう",
    "English": "already"
  },
  {
    "Kanji": "もう一度",
    "Hiragana": "もういちど",
    "English": "again"
  },
  {
    "Kanji": "木曜日",
    "Hiragana": "もくようび",
    "English": "Thursday"
  },
  {
    "Kanji": "持つ",
    "Hiragana": "もつ",
    "English": "to hold"
  },
  {
    "Kanji": "",
    "Hiragana": "もっと",
    "English": "more"
  },
  {
    "Kanji": "物",
    "Hiragana": "もの",
    "English": "thing"
  },
  {
    "Kanji": "門",
    "Hiragana": "もん",
    "English": "gate"
  },
  {
    "Kanji": "問題",
    "Hiragana": "もんだい",
    "English": "problem"
  },
  {
    "Kanji": "八百屋",
    "Hiragana": "やおや",
    "English": "greengrocer"
  },
  {
    "Kanji": "野菜",
    "Hiragana": "やさい",
    "English": "vegetable"
  },
  {
    "Kanji": "易しい",
    "Hiragana": "やさしい",
    "English": "easy, simple"
  },
  {
    "Kanji": "安い",
    "Hiragana": "やすい",
    "English": "cheap"
  },
  {
    "Kanji": "休み",
    "Hiragana": "やすみ",
    "English": "rest,holiday"
  },
  {
    "Kanji": "休む",
    "Hiragana": "やすむ",
    "English": "to rest"
  },
  {
    "Kanji": "八つ",
    "Hiragana": "やっつ",
    "English": "eight"
  },
  {
    "Kanji": "山",
    "Hiragana": "やま",
    "English": "mountain"
  },
  {
    "Kanji": "",
    "Hiragana": "やる",
    "English": "to do"
  },
  {
    "Kanji": "夕方",
    "Hiragana": "ゆうがた",
    "English": "evening"
  },
  {
    "Kanji": "夕飯",
    "Hiragana": "ゆうはん",
    "English": "dinner"
  },
  {
    "Kanji": "郵便局",
    "Hiragana": "ゆうびんきょく",
    "English": "post office"
  },
  {
    "Kanji": "昨夜",
    "Hiragana": "ゆうべ",
    "English": "last night"
  },
  {
    "Kanji": "有名",
    "Hiragana": "ゆうめい",
    "English": "famous"
  },
  {
    "Kanji": "雪",
    "Hiragana": "ゆき",
    "English": "snow"
  },
  {
    "Kanji": "行く",
    "Hiragana": "ゆく",
    "English": "to go"
  },
  {
    "Kanji": "",
    "Hiragana": "ゆっくりと",
    "English": "slowly"
  },
  {
    "Kanji": "八日",
    "Hiragana": "ようか",
    "English": "eight days, eighth day of the month"
  },
  {
    "Kanji": "洋服",
    "Hiragana": "ようふく",
    "English": "western-style clothes"
  },
  {
    "Kanji": "",
    "Hiragana": "よく",
    "English": "often, well"
  },
  {
    "Kanji": "横",
    "Hiragana": "よこ",
    "English": "beside,side,width"
  },
  {
    "Kanji": "四日",
    "Hiragana": "よっか",
    "English": "four days, fouth day of the month"
  },
  {
    "Kanji": "四つ",
    "Hiragana": "よっつ",
    "English": "four"
  },
  {
    "Kanji": "呼ぶ",
    "Hiragana": "よぶ",
    "English": "to call out,to invite"
  },
  {
    "Kanji": "読む",
    "Hiragana": "よむ",
    "English": "to read"
  },
  {
    "Kanji": "夜",
    "Hiragana": "よる",
    "English": "evening,night"
  },
  {
    "Kanji": "弱い",
    "Hiragana": "よわい",
    "English": "weak"
  },
  {
    "Kanji": "来月",
    "Hiragana": "らいげつ",
    "English": "next month"
  },
  {
    "Kanji": "来週",
    "Hiragana": "らいしゅう",
    "English": "next week"
  },
  {
    "Kanji": "来年",
    "Hiragana": "らいねん",
    "English": "next year"
  },
  {
    "Kanji": "",
    "Hiragana": "ラジオ",
    "English": "radio"
  },
  {
    "Kanji": "",
    "Hiragana": "ラジカセ / ラジオカセット",
    "English": "radio cassette player"
  },
  {
    "Kanji": "",
    "Hiragana": "りっぱ",
    "English": "splendid"
  },
  {
    "Kanji": "留学生",
    "Hiragana": "りゅうがくせい",
    "English": "overseas student"
  },
  {
    "Kanji": "両親",
    "Hiragana": "りょうしん",
    "English": "both parents"
  },
  {
    "Kanji": "料理",
    "Hiragana": "りょうり",
    "English": "cuisine"
  },
  {
    "Kanji": "旅行",
    "Hiragana": "りょこう",
    "English": "travel"
  },
  {
    "Kanji": "零",
    "Hiragana": "れい",
    "English": "zero"
  },
  {
    "Kanji": "冷蔵庫",
    "Hiragana": "れいぞうこ",
    "English": "refrigerator"
  },
  {
    "Kanji": "",
    "Hiragana": "レコード",
    "English": "record"
  },
  {
    "Kanji": "",
    "Hiragana": "レストラン",
    "English": "restaurant"
  },
  {
    "Kanji": "練習",
    "Hiragana": "れんしゅうする",
    "English": "to practice"
  },
  {
    "Kanji": "廊下",
    "Hiragana": "ろうか",
    "English": "corridor"
  },
  {
    "Kanji": "六",
    "Hiragana": "ろく",
    "English": "six"
  },
  {
    "Kanji": "",
    "Hiragana": "ワイシャツ",
    "English": "business shirt"
  },
  {
    "Kanji": "若い",
    "Hiragana": "わかい",
    "English": "young"
  },
  {
    "Kanji": "分かる",
    "Hiragana": "わかる",
    "English": "to be understood"
  },
  {
    "Kanji": "忘れる",
    "Hiragana": "わすれる",
    "English": "to forget"
  },
  {
    "Kanji": "私",
    "Hiragana": "わたくし",
    "English": "(humble) I,myself"
  },
  {
    "Kanji": "私",
    "Hiragana": "わたし",
    "English": "I,myself"
  },
  {
    "Kanji": "渡す",
    "Hiragana": "わたす",
    "English": "to hand over"
  },
  {
    "Kanji": "渡る",
    "Hiragana": "わたる",
    "English": "to go across"
  },
  {
    "Kanji": "悪い",
    "Hiragana": "わるい",
    "English": "bad"
  },
  {
    "Kanji": "",
    "Hiragana": "より、ほう",
    "English": "Used for comparison."
  }
]